[2016-07-18 01:02:49,448] INFO [Group Metadata Manager on Broker 0]: Removed 0 expired offsets in 0 milliseconds. (kafka.coordinator.GroupMetadataManager)
[2016-07-18 01:12:49,448] INFO [Group Metadata Manager on Broker 0]: Removed 0 expired offsets in 0 milliseconds. (kafka.coordinator.GroupMetadataManager)
[2016-07-18 01:22:49,450] INFO [Group Metadata Manager on Broker 0]: Removed 0 expired offsets in 0 milliseconds. (kafka.coordinator.GroupMetadataManager)
[2016-07-18 01:31:28,957] INFO [Kafka Server 0], shutting down (kafka.server.KafkaServer)
[2016-07-18 01:31:28,959] INFO [Kafka Server 0], Starting controlled shutdown (kafka.server.KafkaServer)
[2016-07-18 01:31:29,025] INFO [Kafka Server 0], Controlled shutdown succeeded (kafka.server.KafkaServer)
[2016-07-18 01:31:29,030] INFO [Socket Server on Broker 0], Shutting down (kafka.network.SocketServer)
[2016-07-18 01:31:29,041] INFO [Socket Server on Broker 0], Shutdown completed (kafka.network.SocketServer)
[2016-07-18 01:31:29,043] INFO [Kafka Request Handler on Broker 0], shutting down (kafka.server.KafkaRequestHandlerPool)
[2016-07-18 01:31:29,048] INFO [Kafka Request Handler on Broker 0], shut down completely (kafka.server.KafkaRequestHandlerPool)
[2016-07-18 01:31:29,054] INFO [ThrottledRequestReaper-Produce], Shutting down (kafka.server.ClientQuotaManager$ThrottledRequestReaper)
[2016-07-18 01:31:29,623] INFO [ThrottledRequestReaper-Produce], Shutdown completed (kafka.server.ClientQuotaManager$ThrottledRequestReaper)
[2016-07-18 01:31:29,624] INFO [ThrottledRequestReaper-Fetch], Shutting down (kafka.server.ClientQuotaManager$ThrottledRequestReaper)
[2016-07-18 01:31:29,624] INFO [ThrottledRequestReaper-Produce], Stopped  (kafka.server.ClientQuotaManager$ThrottledRequestReaper)
[2016-07-18 01:31:30,623] INFO [ThrottledRequestReaper-Fetch], Shutdown completed (kafka.server.ClientQuotaManager$ThrottledRequestReaper)
[2016-07-18 01:31:30,623] INFO [ThrottledRequestReaper-Fetch], Stopped  (kafka.server.ClientQuotaManager$ThrottledRequestReaper)
[2016-07-18 01:31:30,625] INFO [KafkaApi-0] Shutdown complete. (kafka.server.KafkaApis)
[2016-07-18 01:31:30,628] INFO [Replica Manager on Broker 0]: Shutting down (kafka.server.ReplicaManager)
[2016-07-18 01:31:30,629] INFO [ReplicaFetcherManager on broker 0] shutting down (kafka.server.ReplicaFetcherManager)
[2016-07-18 01:31:30,633] INFO [ReplicaFetcherManager on broker 0] shutdown completed (kafka.server.ReplicaFetcherManager)
[2016-07-18 01:31:30,633] INFO [ExpirationReaper-0], Shutting down (kafka.server.DelayedOperationPurgatory$ExpiredOperationReaper)
[2016-07-18 01:31:30,779] INFO [ExpirationReaper-0], Stopped  (kafka.server.DelayedOperationPurgatory$ExpiredOperationReaper)
[2016-07-18 01:31:30,780] INFO [ExpirationReaper-0], Shutdown completed (kafka.server.DelayedOperationPurgatory$ExpiredOperationReaper)
[2016-07-18 01:31:30,781] INFO [ExpirationReaper-0], Shutting down (kafka.server.DelayedOperationPurgatory$ExpiredOperationReaper)
[2016-07-18 01:31:30,982] INFO [ExpirationReaper-0], Shutdown completed (kafka.server.DelayedOperationPurgatory$ExpiredOperationReaper)
[2016-07-18 01:31:30,982] INFO [ExpirationReaper-0], Stopped  (kafka.server.DelayedOperationPurgatory$ExpiredOperationReaper)
[2016-07-18 01:31:30,986] INFO [Replica Manager on Broker 0]: Shut down completely (kafka.server.ReplicaManager)
[2016-07-18 01:31:30,989] INFO Shutting down. (kafka.log.LogManager)
[2016-07-18 01:31:31,036] INFO Shutdown complete. (kafka.log.LogManager)
[2016-07-18 01:31:31,037] INFO [GroupCoordinator 0]: Shutting down. (kafka.coordinator.GroupCoordinator)
[2016-07-18 01:31:31,038] INFO [ExpirationReaper-0], Shutting down (kafka.server.DelayedOperationPurgatory$ExpiredOperationReaper)
[2016-07-18 01:31:31,183] INFO [ExpirationReaper-0], Shutdown completed (kafka.server.DelayedOperationPurgatory$ExpiredOperationReaper)
[2016-07-18 01:31:31,183] INFO [ExpirationReaper-0], Stopped  (kafka.server.DelayedOperationPurgatory$ExpiredOperationReaper)
[2016-07-18 01:31:31,184] INFO [ExpirationReaper-0], Shutting down (kafka.server.DelayedOperationPurgatory$ExpiredOperationReaper)
[2016-07-18 01:31:31,385] INFO [ExpirationReaper-0], Stopped  (kafka.server.DelayedOperationPurgatory$ExpiredOperationReaper)
[2016-07-18 01:31:31,386] INFO [ExpirationReaper-0], Shutdown completed (kafka.server.DelayedOperationPurgatory$ExpiredOperationReaper)
[2016-07-18 01:31:31,388] INFO [GroupCoordinator 0]: Shutdown complete. (kafka.coordinator.GroupCoordinator)
[2016-07-18 01:31:31,404] INFO [Kafka Server 0], shut down completed (kafka.server.KafkaServer)
